{
    "naermesteBarnehage": {
        "name": [
            "Navn",
            "Name"
        ],
        "distance": [
            "Avstand i luftlinje",
            "Straight distance"
        ],
        "link": [
            "Lenke",
            "Link"
        ],
        "showMore": [
            "Vis flere barnehager",
            "Show more"
        ],
        "unknownDistance": [
            "Ukjent distanse",
            "Unknown distance"
        ]
    }
}